¶ Switching between space and time: Spatio-temporal analysis with cubble ¶
…
On the right hand side with cubble, you can do some spatial analysis in the nested form, pivot it to the long form for some temporal analysis, and then pivot it back to the nested form for some additional spatial analysis.

Sometimes, the spatial analysis include extracting some interesting sites.

I have highlighted the code you will need to do to pull out some interesting stations and then filter out those station in the temporal data

In cubble, these updates are automatically handled by face_temporal() and face_spatial(), so you don’t need to manually updates your spatial or temporal data to match with the other.

Also the cubble pipeline chains all the operations together and there is no intermediate objects created in the workflow.

Australian weather station data:

stations

# A tibble: 30 × 6
  id            lat  long  elev name                       wmo_id
  <chr>       <dbl> <dbl> <dbl> <chr>                       <dbl>
1 ASN00060139 -31.4  153.   4.2 port macquarie airport aws  94786
2 ASN00068228 -34.4  151.  10   bellambi aws                94749
3 ASN00017123 -28.1  140.  37.8 moomba airport              95481
4 ASN00081049 -36.4  145. 114   tatura inst sustainable ag  95836
5 ASN00018201 -32.5  138.  14   port augusta aero           95666
# … with 25 more rows
…
ts

# A tibble: 10,632 × 5
  id          date        prcp  tmax  tmin
  <chr>       <date>     <dbl> <dbl> <dbl>
1 ASN00003057 2020-01-01     0  36.7  26.9
2 ASN00003057 2020-01-02    41  34.2  24  
3 ASN00003057 2020-01-03     0  35    25.4
4 ASN00003057 2020-01-04    40  29.1  25.4
5 ASN00003057 2020-01-05  1640  27.3  24.3
# … with 10,627 more rows
…
